数据管理与可视化
…
为了方便大家练习，且对数据有很好的代入感，我构造了两份数据：

> 练习数据，点击即可下载：  
1. 学生名单，包括班级（class)、姓名（name)、以及性别(gender)。下载 [students.xls](/datavis/data/students.xls)  
2. 考试成绩，包括姓名(name)以及各科成绩，即语文(chinese)、数学(math)、英语(english)、物理(physics)、化学(chemistry)、生物(biology)。下载 [scores.xls](/datavis/data/scores.xls)
---
# 让我们先来浏览一下数据内容：
学生名单（为了逼真，我还起了396个名字，可见用心良苦!)

```
## # A tibble: 396 x 3
##    class name   gender
##    <dbl> <chr>  <chr> 
##  1     1 柏寒   F     
##  2     1 柏朗   M     
##  3     1 陈依   F     
##  4     1 陈宇   M     
##  5     1 单天傲 F     
##  6     1 单运旭 M     
##  7     1 董冬烟 F     
##  8     1 董鹏   M     
##  9     1 范昆   M     
## 10     1 范南   F     
## # … with 386 more rows
```

---
# 让我们先来浏览一下数据内容：
考试成绩

```
## # A tibble: 396 x 7
##    name   chinese  math english physics chemistry biology
##    <chr>    <dbl> <dbl>   <dbl>   <dbl>     <dbl>   <dbl>
##  1 安昆        93    69      56      30        63      62
##  2 安香        88    34      71      74        52      57
##  3 柏寒        75    38      59      36        80      54
##  4 柏朗        69   100      71      84        85      73
##  5 包松烟      88    95      43      37        94      66
##  6 包文        94    72      96      99        57      66
##  7 鲍达泽      50    48      88      37        63      79
##  8 鲍雁        83    99      99      48        91      87
##  9 贝和浦      97    56      64      50        87      57
## 10 贝小        65    95      83      41        96      81
## # … with 386 more rows
```
…
